{
    "project_name": "GINO FastAPI",
    "secret_key": "{{ random_ascii_string(64) }}",
    "project_slug": "{{ cookiecutter.project_name|lower|replace(' ', '-') }}",
    "python_slug": "{{ cookiecutter.project_slug|lower|replace('-', '_') }}",
    "db_name": "{{ cookiecutter.python_slug }}_db",
    "author": "Micheal Taylor",
    "author_email": "bubthegreat@gmail.com",
    "url": "",
    "api_host": "localhost",
    "api_port": "8000",
    "project_description": "This is a basic GINO FastAPI implementation!",
    "postgres_hostname": "postgres-{{ cookiecutter.project_slug }}",
    "postgres_username": "postgresql",
    "postgres_password": "postgresql",
    "postgres_volume": "postgres-{{ cookiecutter.project_slug }}-vol",
    "redis_hostname": "redis-{{ cookiecutter.project_slug }}",
    "redis_volume": "redis-{{ cookiecutter.project_slug }}-vol"
}